D:\torolni\epam-deik-java-dev\final\ticket-service\src\main\java\com\epam\training\ticketservice\repository\ScreeningRepository.java
D:\torolni\epam-deik-java-dev\final\ticket-service\src\main\java\com\epam\training\ticketservice\dataaccess\dao\RoomDao.java
D:\torolni\epam-deik-java-dev\final\ticket-service\src\main\java\com\epam\training\ticketservice\exception\UsernameNotFoundException.java
D:\torolni\epam-deik-java-dev\final\ticket-service\src\main\java\com\epam\training\ticketservice\dataaccess\configuration\DefaultAdminDatabaseInitializer.java
D:\torolni\epam-deik-java-dev\final\ticket-service\src\main\java\com\epam\training\ticketservice\exception\MovieNotFoundException.java
D:\torolni\epam-deik-java-dev\final\ticket-service\src\main\java\com\epam\training\ticketservice\cli\handler\MovieCommandHandler.java
D:\torolni\epam-deik-java-dev\final\ticket-service\src\main\java\com\epam\training\ticketservice\service\RoomService.java
D:\torolni\epam-deik-java-dev\final\ticket-service\src\main\java\com\epam\training\ticketservice\service\TicketUserDetailsService.java
D:\torolni\epam-deik-java-dev\final\ticket-service\src\main\java\com\epam\training\ticketservice\exception\InsufficientPermissionException.java
D:\torolni\epam-deik-java-dev\final\ticket-service\src\main\java\com\epam\training\ticketservice\dataaccess\model\Book.java
D:\torolni\epam-deik-java-dev\final\ticket-service\src\main\java\com\epam\training\ticketservice\dataaccess\dao\BookDao.java
D:\torolni\epam-deik-java-dev\final\ticket-service\src\main\java\com\epam\training\ticketservice\dataaccess\model\User.java
D:\torolni\epam-deik-java-dev\final\ticket-service\src\main\java\com\epam\training\ticketservice\cli\handler\RoomCommandHandler.java
D:\torolni\epam-deik-java-dev\final\ticket-service\src\main\java\com\epam\training\ticketservice\exception\RoomNotFoundException.java
D:\torolni\epam-deik-java-dev\final\ticket-service\src\main\java\com\epam\training\ticketservice\repository\BookRepository.java
D:\torolni\epam-deik-java-dev\final\ticket-service\src\main\java\com\epam\training\ticketservice\repository\impl\JpaScreeningRepository.java
D:\torolni\epam-deik-java-dev\final\ticket-service\src\main\java\com\epam\training\ticketservice\cli\handler\ScreeningCommandHandler.java
D:\torolni\epam-deik-java-dev\final\ticket-service\src\main\java\com\epam\training\ticketservice\dataaccess\converter\SeatAttributeConverter.java
D:\torolni\epam-deik-java-dev\final\ticket-service\src\main\java\com\epam\training\ticketservice\repository\impl\JpaRoomRepository.java
D:\torolni\epam-deik-java-dev\final\ticket-service\src\main\java\com\epam\training\ticketservice\service\MovieService.java
D:\torolni\epam-deik-java-dev\final\ticket-service\src\main\java\com\epam\training\ticketservice\dataaccess\model\Screening.java
D:\torolni\epam-deik-java-dev\final\ticket-service\src\main\java\com\epam\training\ticketservice\exception\ScreeningNotFoundException.java
D:\torolni\epam-deik-java-dev\final\ticket-service\src\main\java\com\epam\training\ticketservice\dataaccess\dao\ScreeningDao.java
D:\torolni\epam-deik-java-dev\final\ticket-service\src\main\java\com\epam\training\ticketservice\repository\MovieRepository.java
D:\torolni\epam-deik-java-dev\final\ticket-service\src\main\java\com\epam\training\ticketservice\dataaccess\dao\TicketUserDao.java
D:\torolni\epam-deik-java-dev\final\ticket-service\src\main\java\com\epam\training\ticketservice\service\ScreeningService.java
D:\torolni\epam-deik-java-dev\final\ticket-service\src\main\java\com\epam\training\ticketservice\dataaccess\configuration\JpaConfiguration.java
D:\torolni\epam-deik-java-dev\final\ticket-service\src\main\java\com\epam\training\ticketservice\Application.java
D:\torolni\epam-deik-java-dev\final\ticket-service\src\main\java\com\epam\training\ticketservice\dataaccess\model\Room.java
D:\torolni\epam-deik-java-dev\final\ticket-service\src\main\java\com\epam\training\ticketservice\cli\handler\BookCommandHandler.java
D:\torolni\epam-deik-java-dev\final\ticket-service\src\main\java\com\epam\training\ticketservice\dataaccess\model\Movie.java
D:\torolni\epam-deik-java-dev\final\ticket-service\src\main\java\com\epam\training\ticketservice\cli\handler\AuthenticationCommandHandler.java
D:\torolni\epam-deik-java-dev\final\ticket-service\src\main\java\com\epam\training\ticketservice\dataaccess\model\TicketUserDetails.java
D:\torolni\epam-deik-java-dev\final\ticket-service\src\main\java\com\epam\training\ticketservice\dataaccess\configuration\SpringSecurityConfiguration.java
D:\torolni\epam-deik-java-dev\final\ticket-service\src\main\java\com\epam\training\ticketservice\dataaccess\converter\SeatList.java
D:\torolni\epam-deik-java-dev\final\ticket-service\src\main\java\com\epam\training\ticketservice\exception\ScreeningOverlapException.java
D:\torolni\epam-deik-java-dev\final\ticket-service\src\main\java\com\epam\training\ticketservice\repository\impl\JpaBookRepository.java
D:\torolni\epam-deik-java-dev\final\ticket-service\src\main\java\com\epam\training\ticketservice\cli\UserCommandAvailability.java
D:\torolni\epam-deik-java-dev\final\ticket-service\src\main\java\com\epam\training\ticketservice\dataaccess\converter\Seat.java
D:\torolni\epam-deik-java-dev\final\ticket-service\src\main\java\com\epam\training\ticketservice\repository\impl\JpaMovieRepository.java
D:\torolni\epam-deik-java-dev\final\ticket-service\src\main\java\com\epam\training\ticketservice\exception\InvalidSeatException.java
D:\torolni\epam-deik-java-dev\final\ticket-service\src\main\java\com\epam\training\ticketservice\dataaccess\dao\MovieDao.java
D:\torolni\epam-deik-java-dev\final\ticket-service\src\main\java\com\epam\training\ticketservice\repository\RoomRepository.java
D:\torolni\epam-deik-java-dev\final\ticket-service\src\main\java\com\epam\training\ticketservice\cli\ServicePromtProvider.java
D:\torolni\epam-deik-java-dev\final\ticket-service\src\main\java\com\epam\training\ticketservice\exception\SeatAlreadyTakenException.java
D:\torolni\epam-deik-java-dev\final\ticket-service\src\main\java\com\epam\training\ticketservice\service\BookService.java
